module gitlab.com/ndtruonguit/service-context

go 1.19

require (
	github.com/btcsuite/btcutil v1.0.2
	github.com/facebookgo/flagenv v0.0.0-20160425205200-fcd59fca7456
	github.com/gin-gonic/gin v1.9.0
	github.com/golang-jwt/jwt/v5 v5.0.0-rc.1
	github.com/joho/godotenv v1.5.1
	github.com/pkg/errors v0.9.1
	github.com/sirupsen/logrus v1.9.0
	github.com/spf13/cobra v1.6.1
	gorm.io/driver/mysql v1.4.7
	gorm.io/driver/postgres v1.5.0
	gorm.io/driver/sqlite v1.4.4
	gorm.io/driver/sqlserver v1.4.2
	gorm.io/gorm v1.24.7-0.20230306060331-85eaf9eeda11
)

require (
	github.com/bytedance/sonic v1.8.0 // indirect
	github.com/chenzhuoyu/base64x v0.0.0-20221115062448-fe3a3abad311 // indirect
	github.com/facebookgo/ensure v0.0.0-20200202191622-63f1cf65ac4c // indirect
	github.com/facebookgo/stack v0.0.0-20160209184415-751773369052 // indirect
	github.com/facebookgo/subset v0.0.0-20200203212716-c811ad88dec4 // indirect
	github.com/gin-contrib/sse v0.1.0 // indirect
	github.com/go-playground/locales v0.14.1 // indirect
	github.com/go-playground/universal-translator v0.18.1 // indirect
	github.com/go-playground/validator/v10 v10.11.2 // indirect
	github.com/go-sql-driver/mysql v1.7.0 // indirect
	github.com/goccy/go-json v0.10.0 // indirect
	github.com/golang-sql/civil v0.0.0-20220223132316-b832511892a9 // indirect
	github.com/golang-sql/sqlexp v0.1.0 // indirect
	github.com/inconshreveable/mousetrap v1.0.1 // indirect
	github.com/jackc/pgpassfile v1.0.0 // indirect
	github.com/jackc/pgservicefile v0.0.0-20221227161230-091c0ba34f0a // indirect
	github.com/jackc/pgx/v5 v5.3.0 // indirect
	github.com/jinzhu/inflection v1.0.0 // indirect
	github.com/jinzhu/now v1.1.5 // indirect
	github.com/json-iterator/go v1.1.12 // indirect
	github.com/klauspost/cpuid/v2 v2.0.9 // indirect
	github.com/leodido/go-urn v1.2.1 // indirect
	github.com/mattn/go-isatty v0.0.17 // indirect
	github.com/mattn/go-sqlite3 v1.14.15 // indirect
	github.com/microsoft/go-mssqldb v0.19.0 // indirect
	github.com/modern-go/concurrent v0.0.0-20180228061459-e0a39a4cb421 // indirect
	github.com/modern-go/reflect2 v1.0.2 // indirect
	github.com/pelletier/go-toml/v2 v2.0.6 // indirect
	github.com/spf13/pflag v1.0.5 // indirect
	github.com/twitchyliquid64/golang-asm v0.15.1 // indirect
	github.com/ugorji/go/codec v1.2.9 // indirect
	golang.org/x/arch v0.0.0-20210923205945-b76863e36670 // indirect
	golang.org/x/crypto v0.6.0 // indirect
	golang.org/x/net v0.7.0 // indirect
	golang.org/x/sys v0.5.0 // indirect
	golang.org/x/text v0.7.0 // indirect
	google.golang.org/protobuf v1.28.1 // indirect
	gopkg.in/yaml.v3 v3.0.1 // indirect
)
